paths of zork - Visual Diary
…
Directions :
 north, south, east, west, up, down 

Set nodes

Code

unknown = 'unknown'

source('set-nodes.R')

zork_nodes

# A tibble: 21 × 4
   perspective_location region interactivity            loot                
   <chr>                <chr>  <chr>                    <chr>               
 1 west of house        forest solved: mailbox          leaflet             
 2 north of house       forest none                     none                
 3 forest               forest song bird?               none                
 4 clearing             forest unsolved: pile of leaves none                
 5 forest path          forest none                     none                
 6 behind house         forest window to house          none                
 7 south of house       forest none                     none                
 8 kitchen              house  sack                     water, lunch, garlic
 9 living room          house  rug, locked door to west sword, lantern      
10 attic                house  none                     rope, knife         
# ℹ 11 more rows

Set edges

Code

source('set-edges.R')

zork_edges

# A tibble: 27 × 3
   perspective_location perspective_to_target target_location
   <chr>                <chr>                 <chr>          
 1 west of house        north                 north of house 
 2 west of house        west                  forest         
 3 forest               north                 clearing       
 4 clearing             west                  forest         
 5 clearing             south                 forest path    
 6 forest path          south                 north of house 
 7 north of house       east                  behind house   
 8 behind house         south                 south of house 
 9 south of house       south                 forest         
10 behind house         west                  kitchen        
# ℹ 17 more rows
…
